<svg width="24" height="24" viewBox="0 0 24 24" fill="none" xmlns="http://www.w3.org/2000/svg">
<path fill-rule="evenodd" clip-rule="evenodd" d="M6 16C6.55229 16 7 16.4477 7 17V19C7 19.5523 6.55229 20 6 20C5.44772 20 5 19.5523 5 19V17C5 16.4477 5.44772 16 6 16Z" fill="currentColor"/>
<path fill-rule="evenodd" clip-rule="evenodd" d="M10 14C10.5523 14 11 14.4477 11 15V19C11 19.5523 10.5523 20 10 20C9.44772 20 9 19.5523 9 19V15C9 14.4477 9.44772 14 10 14Z" fill="currentColor"/>
<path fill-rule="evenodd" clip-rule="evenodd" d="M14 12C14.5523 12 15 12.4477 15 13V19C15 19.5523 14.5523 20 14 20C13.4477 20 13 19.5523 13 19V13C13 12.4477 13.4477 12 14 12Z" fill="currentColor"/>
<path fill-rule="evenodd" clip-rule="evenodd" d="M18 10C18.5523 10 19 10.4477 19 11V19C19 19.5523 18.5523 20 18 20C17.4477 20 17 19.5523 17 19V11C17 10.4477 17.4477 10 18 10Z" fill="currentColor"/>
<path fill-rule="evenodd" clip-rule="evenodd" d="M18.4651 3.77058C18.9932 3.93205 19.2905 4.4911 19.129 5.01925L18.3021 7.72409C18.1406 8.25225 17.5815 8.5495 17.0534 8.38803C16.5252 8.22655 16.228 7.6675 16.3894 7.13935L16.5105 6.74324L6.29676 12.174C5.80912 12.4333 5.20362 12.2482 4.94434 11.7605C4.68506 11.2729 4.87018 10.6674 5.35781 10.4081L15.5716 4.97734L15.1755 4.85624C14.6473 4.69476 14.3501 4.13571 14.5116 3.60756C14.673 3.07941 15.2321 2.78215 15.7602 2.94363L18.4651 3.77058Z" fill="currentColor"/>
</svg>
