<svg width="32" height="28" viewBox="0 0 32 28" fill="none" xmlns="http://www.w3.org/2000/svg">
<g id="Group">
<path id="Vector" fill-rule="evenodd" clip-rule="evenodd" d="M31.4831 11.7032L30.1544 11.7454C30.0417 11.7454 29.2257 11.722 28.4335 11.1475C28.4928 11.153 28.5517 11.1617 28.6124 11.1617C29.4271 11.1617 30.2166 10.6712 30.5326 9.96851L31.1042 8.70006C30.3868 8.70966 29.7317 8.61902 29.7317 8.61902C29.7262 8.6186 29.2093 8.55175 28.6119 7.94133C28.1837 7.50391 27.6531 7.27202 27.0791 7.27202C26.8275 7.27202 26.6031 7.31757 26.4093 7.37897C26.4397 7.2762 26.4677 7.17175 26.4844 7.06437C26.6675 5.877 25.9042 4.97204 25.9037 4.97288L24.9035 3.73453L24.2839 5.18931C24.2819 5.19348 24.1248 5.53482 23.8453 5.70069C23.7613 5.27328 23.5533 4.7924 23.1095 4.33364C22.2731 3.46797 21.2553 3.33844 20.7226 3.33844C20.4762 3.33844 20.2997 3.3652 20.2568 3.37229L19.0502 3.60917C19.1199 3.34013 19.2686 2.87008 19.5395 2.44728L20.2053 1.41031L18.5295 1.60082L17.9961 0.46733L16.9624 1.00002L16.0069 0.0566406L15.0539 1.00002L14.0182 0.46733L13.4855 1.60082L11.8101 1.40989L12.4773 2.44771C12.7485 2.87009 12.8964 3.33886 12.9653 3.60793L11.8139 3.38106L11.7742 3.37437C11.717 3.3652 11.5419 3.33844 11.2937 3.33844C10.7615 3.33844 9.74328 3.46797 8.90892 4.33322C8.46481 4.79197 8.25632 5.27328 8.17152 5.70069C7.89368 5.53606 7.73783 5.20057 7.73783 5.20057L7.11699 3.73744L6.10175 4.98333C5.97723 5.14375 5.36599 5.99482 5.53186 7.06564C5.54899 7.1726 5.57699 7.2762 5.60708 7.37897C5.41446 7.31673 5.18968 7.27202 4.93859 7.27202C4.36412 7.27202 3.83392 7.50391 3.40443 7.94133C2.80866 8.54924 2.40326 8.59197 2.29977 8.61775C2.19628 8.64353 1.75621 8.71553 0.91519 8.70006L1.48423 9.96851C1.80008 10.6712 2.59015 11.1617 3.40359 11.1617C3.46501 11.1617 3.5235 11.153 3.58368 11.1475C2.79319 11.722 1.97723 11.7454 1.87863 11.7458L0.525391 11.7032L0.935235 12.9892C1.14163 13.6518 1.83141 14.7494 3.15126 14.8676C3.00752 15.4692 2.68917 16.144 1.98977 16.4347L0.981613 16.85L1.53143 17.8076C1.84146 18.324 2.57092 18.9282 3.60832 18.9282C3.83226 18.9273 4.04868 18.9049 4.25757 18.8604C4.31106 19.0967 4.37748 19.3331 4.45646 19.5678C4.76521 20.4873 4.49906 21.1282 4.49615 21.1353L3.99812 22.1782L5.10948 22.4711C5.12326 22.4753 5.45917 22.5676 5.87948 22.5676C6.06999 22.5676 6.25299 22.548 6.42303 22.5071C6.55212 22.4769 6.67663 22.4369 6.7957 22.3884C6.93986 22.6462 7.11448 22.8818 7.31795 23.0929C8.0303 23.8236 9.0397 24.1938 10.3177 24.1938H10.3219L11.2344 24.182L9.3493 24.9662L10.7807 25.658C11.3013 25.9113 11.9171 26.2109 12.5455 26.4402L12.3662 26.9296L12.8601 27.1542C12.9039 27.1742 13.8527 27.5984 15.4295 27.6891C15.4295 27.6891 15.8105 27.7067 16.0203 27.7067C16.2296 27.7067 16.6056 27.6878 16.6056 27.6878C18.1728 27.5951 19.1142 27.1742 19.1579 27.1542L19.6526 26.9287L19.4722 26.4389C20.1177 26.2029 20.7573 25.8913 21.2562 25.6476L22.6604 24.9653L20.7815 24.182L21.6977 24.1938C22.9779 24.1938 23.9873 23.8231 24.6984 23.0916C24.9011 22.8822 25.0753 22.6476 25.2202 22.3884C25.3397 22.4369 25.4651 22.4769 25.5946 22.508C25.7646 22.548 25.9468 22.5676 26.1373 22.5676C26.5504 22.5676 26.8897 22.4767 26.8988 22.4736L28.0148 22.1782L27.5286 21.1547C27.5173 21.1282 27.2511 20.4873 27.5604 19.5671C27.6384 19.3322 27.7044 19.0958 27.7584 18.8604C27.9682 18.9049 28.1871 18.9273 28.4131 18.9282C29.7346 18.9282 30.3679 17.9991 30.4904 17.7969L31.0351 16.8493L30.0271 16.4356C29.3259 16.144 29.0084 15.4697 28.8664 14.8684C30.1691 14.7548 30.8679 13.6564 31.0815 12.9896L31.4831 11.7032Z" fill="#FEFEFE"/>
<path id="Vector_2" fill-rule="evenodd" clip-rule="evenodd" d="M18.2091 3.18945C17.6012 2.85105 16.8128 2.65843 16.0073 2.65843C15.2059 2.65843 14.4175 2.85105 13.808 3.18945C13.7524 3.00354 13.6751 2.77751 13.5698 2.54102L13.7988 2.56818L14.0394 2.59367L14.143 2.37391L14.4464 1.72591L15.0087 2.01711L15.2268 2.12783L15.4002 1.95654L16.0073 1.35449L16.6156 1.95654L16.7898 2.12783L17.0079 2.01711L17.5673 1.72591L17.8748 2.37391L17.9763 2.59367L18.2174 2.56818L18.4471 2.54102C18.342 2.77751 18.2638 3.00354 18.2091 3.18945ZM16.0073 3.99465C14.9394 3.99589 14.1389 4.34558 13.9647 4.75711L16.0073 5.56389L18.0503 4.75711C17.8777 4.34558 17.0768 3.99589 16.0073 3.99465ZM16.0289 25.3334H16.0268H16.0093H15.9892H15.9875C15.3412 25.3376 14.4492 25.2047 14.0205 25.0798L13.5041 26.4769C13.8442 26.598 14.9982 26.8307 16.0093 26.8307C17.0183 26.8307 18.1726 26.598 18.5122 26.4769L17.9967 25.0798C17.5664 25.2047 16.6757 25.3376 16.0289 25.3334ZM18.1954 24.6389C18.6942 24.4874 19.5529 24.1605 19.9371 23.9429L19.6807 24.7827L20.5504 25.0718C20.0244 25.3358 19.3869 25.5823 18.6144 25.7934L18.1954 24.6389ZM12.0794 23.9429L12.3368 24.7827L11.4661 25.0718C11.9917 25.3358 12.6317 25.5823 13.4013 25.7934L13.8212 24.6389C13.3232 24.4874 12.4638 24.1605 12.0794 23.9429ZM28.2964 10.1539C28.4013 10.1903 28.5075 10.2061 28.6127 10.2061C29.0687 10.2061 29.508 9.9116 29.6598 9.57485C29.6598 9.57485 28.8249 9.52429 27.9267 8.61307C27.6413 8.31769 27.3384 8.22954 27.0791 8.22954C26.6758 8.22954 26.3733 8.44178 26.3733 8.44178C26.9589 8.75349 27.2927 9.16689 27.5731 9.51414C27.8122 9.81009 28.0124 10.058 28.2964 10.1539ZM3.7173 10.1539C3.61534 10.1903 3.50881 10.2061 3.40352 10.2061C2.94812 10.2061 2.50734 9.9116 2.35736 9.57527C2.35736 9.57527 3.1917 9.52429 4.08872 8.61307C4.37574 8.31727 4.67781 8.22954 4.93894 8.22954C5.33961 8.22954 5.64292 8.4422 5.64292 8.4422C5.0591 8.75325 4.72494 9.16582 4.44397 9.51274C4.20379 9.80927 4.00248 10.0578 3.7173 10.1539ZM27.9695 16.8049C27.1302 16.3912 26.6009 15.2933 26.4727 14.898C26.3331 17.0747 25.2707 18.5858 24.0282 20.0407C23.3831 20.7949 23.1582 21.528 23.1582 21.528C23.1582 21.528 23.2829 20.6972 23.8402 20.0212C24.9995 18.6285 26.1013 16.8947 26.1831 14.8897C26.2391 13.4904 25.8798 12.3561 25.3182 11.4207C25.6324 12.3946 25.5878 13.587 24.5215 14.7004C24.5215 14.7004 26.6449 12.1564 23.6769 9.54811C22.8335 8.84334 21.9333 8.33 21.2429 7.93618C20.9607 7.77527 20.7135 7.63431 20.5195 7.5084C22.9369 8.29723 24.1175 7.42903 24.1175 7.42903C23.3458 8.09794 22.346 8.08665 21.7264 7.99014C21.8949 8.07202 22.0695 8.15767 22.2575 8.25878C24.296 9.36594 26.128 11.188 26.4404 13.711V13.6918C26.9147 16.1694 27.9695 16.8049 27.9695 16.8049ZM28.59 13.9183C28.6093 13.9195 28.6251 13.9195 28.6444 13.9195C29.7809 13.9195 30.1655 12.7025 30.1655 12.7025H30.1435C29.9349 12.7025 28.2453 12.6532 27.0513 11.1357C27.018 11.0933 26.9849 11.0511 26.9518 11.0091C26.2095 10.0635 25.5667 9.24474 24.3487 8.91431L24.2233 8.89258L24.1964 8.76474C24.1611 8.57087 24.2947 8.38829 24.5967 8.19194C26.3529 7.04216 25.16 5.57525 25.16 5.57525C25.16 5.57525 24.6587 6.74845 23.5369 6.74845C23.5233 6.74845 23.5095 6.74802 23.4958 6.7476C23.4818 6.74718 23.4678 6.74676 23.4538 6.74676L23.4289 6.74547C23.3102 6.73934 23.1949 6.73338 23.0793 6.70916L22.8729 6.66865C22.8729 6.66865 23.1924 5.79836 22.4204 4.99996C21.8389 4.39707 21.1315 4.29471 20.7229 4.29471C20.5173 4.29471 20.3867 4.32103 20.3867 4.32103C20.7742 4.82783 21.0547 5.66927 20.6071 6.18858C20.4573 6.36111 20.2238 6.47014 19.9938 6.57747C19.6298 6.74751 19.2744 6.91336 19.2744 7.32083C19.2744 7.60283 19.538 7.93123 20.0102 8.22618C21.4311 9.12069 22.8415 10.3085 23.4287 11.8995C24.1611 13.884 23.3353 15.2013 22.1573 15.9571C22.1573 15.9571 22.5269 16.2972 23.0627 16.3407C23.1715 16.3512 23.2782 16.3565 23.3775 16.3565C24.5091 16.3565 25.0944 15.8255 25.0944 15.8255C25.0944 15.8255 24.9978 16.5587 24.4091 17.2394C23.8655 17.8678 23.1529 18.2383 22.0649 18.2534C22.0649 18.2534 22.0307 18.7585 22.512 19.1956C22.8207 19.4712 23.5322 19.5607 23.5322 19.5607C23.5322 19.5607 22.1993 19.8309 22.0524 21.7992C21.9727 22.8658 21.6998 23.2369 21.6998 23.2369H21.7235C24.8164 23.2369 24.7375 20.5843 24.7375 20.5843C24.7375 20.5843 24.9522 21.3694 25.8155 21.5745C25.9195 21.6012 26.0307 21.612 26.1369 21.612C26.4142 21.612 26.6558 21.5469 26.6558 21.5469C26.6558 21.5469 26.2035 20.5938 26.6524 19.2607C27.0238 18.1543 26.964 17.3349 26.964 17.3349C26.964 17.3349 27.3807 17.9647 28.4133 17.9705H28.4242C29.2844 17.9705 29.6593 17.3183 29.6593 17.3183C27.5969 16.4623 27.8009 13.6998 27.8009 13.6998C27.8009 13.6998 28.0687 13.8995 28.59 13.9183ZM5.54252 14.8976C5.68292 17.0747 6.74537 18.586 7.9875 20.0403C8.63216 20.7949 8.85985 21.5276 8.85985 21.5276C8.85985 21.5276 8.73368 20.6967 8.17383 20.0216C7.01694 18.6285 5.91521 16.8943 5.83416 14.8897C5.77608 13.4901 6.13581 12.3558 6.69816 11.4207C6.38439 12.395 6.42743 13.587 7.4949 14.7009C7.4949 14.7009 5.37123 12.1565 8.34094 9.54816C9.18357 8.84369 10.0823 8.33071 10.7723 7.93691C11.0546 7.7758 11.3019 7.63463 11.4962 7.50845C9.07961 8.29727 7.89892 7.42865 7.89892 7.42865C8.67016 8.09796 9.66954 8.08669 10.29 7.99018L10.2757 7.99714C10.1121 8.07691 9.94043 8.16058 9.75897 8.25925C7.71968 9.36598 5.88888 11.1884 5.57512 13.7111V13.6915C5.10174 16.169 4.04723 16.8049 4.04723 16.8049C4.88574 16.3914 5.41428 15.2929 5.54252 14.8976ZM9.50534 19.1952C9.19659 19.4714 8.48425 19.5607 8.48425 19.5607C8.48425 19.5607 9.81828 19.8305 9.96492 21.7992C10.0447 22.8658 10.3151 23.2365 10.3151 23.2365H10.2933C7.19952 23.2365 7.2789 20.5838 7.2789 20.5838C7.2789 20.5838 7.0629 21.3694 6.20099 21.5745C6.09779 21.6012 5.98748 21.612 5.8797 21.612C5.60228 21.612 5.36203 21.5469 5.36203 21.5469C5.36203 21.5469 5.81159 20.5943 5.3633 19.2607C4.9927 18.1545 5.05288 17.3347 5.05288 17.3347C5.05288 17.3347 4.63674 17.9647 3.6031 17.9709H3.59265C2.73283 17.9709 2.35723 17.3183 2.35723 17.3183C4.41823 16.4623 4.21643 13.6998 4.21643 13.6998C4.21643 13.6998 3.94863 13.8995 3.42596 13.9183C3.40674 13.9196 3.38961 13.9196 3.37165 13.9196C2.23481 13.9196 1.84961 12.7025 1.84961 12.7025H1.87259C2.08232 12.7025 3.77023 12.6532 4.96388 11.1358C4.99754 11.093 5.03094 11.0505 5.06416 11.0083C5.80656 10.0635 6.44963 9.24507 7.66537 8.91436L7.79321 8.8922L7.82036 8.76478C7.85588 8.57091 7.72261 8.38791 7.42094 8.19198C5.66494 7.04218 6.85734 5.57571 6.85734 5.57571C6.85734 5.57571 7.35579 6.74847 8.4809 6.74847C8.49428 6.74847 8.50736 6.74818 8.52063 6.74787C8.5343 6.74754 8.54819 6.74723 8.56279 6.74723L8.59545 6.74542C8.71083 6.73911 8.8245 6.73287 8.93714 6.7092L9.14437 6.66867C9.14437 6.66867 8.82308 5.7984 9.59685 4.99998C10.178 4.39711 10.8858 4.29434 11.2935 4.29434C11.5003 4.29434 11.6294 4.32107 11.6294 4.32107C11.2426 4.82785 10.9622 5.66931 11.4097 6.1882C11.5595 6.36096 11.7928 6.47009 12.0225 6.57754C12.3861 6.7476 12.7408 6.91349 12.7408 7.32087C12.7408 7.60247 12.4776 7.93127 12.0055 8.22623C10.5845 9.12074 9.17445 10.309 8.58788 11.8995C7.85588 13.8845 8.68145 15.2018 9.8609 15.9572C9.8609 15.9572 9.49072 16.2974 8.95385 16.3407C8.84481 16.3512 8.73952 16.3563 8.63801 16.3563C7.50785 16.3563 6.92252 15.8256 6.92252 15.8256C6.92252 15.8256 7.01988 16.5587 7.60479 17.2398C8.15168 17.8678 8.86403 18.2383 9.95199 18.2534C9.95199 18.2534 9.98623 18.7585 9.50534 19.1952ZM15.3096 9.78549H16.0395H16.7673V10.2856C16.5964 10.0759 16.2622 10.1189 16.2622 10.1189V10.8396C16.2622 10.8396 16.2751 11.1947 16.3992 11.3481H16.0395H15.6777C15.8038 11.1947 15.8151 10.8396 15.8151 10.8396V10.1189C15.8151 10.1189 15.4821 10.0759 15.3096 10.2856V9.78549ZM13.7207 9.86071C13.7713 9.91503 13.821 9.97394 13.8694 10.0337L13.8761 10.0417C13.8849 10.0524 13.8935 10.0628 13.9029 10.0759C13.9471 10.1348 13.9919 10.1974 14.0353 10.2618C14.0409 10.269 14.0463 10.2771 14.0519 10.2854C14.0559 10.2916 14.0601 10.2978 14.0645 10.304C14.1163 10.3821 14.1652 10.4632 14.2137 10.5467C14.6599 11.3167 15.3735 11.7776 16.0073 11.7784C16.6415 11.7776 17.3547 11.3167 17.8022 10.5467C17.8515 10.4611 17.9016 10.3779 17.9534 10.3002C17.9613 10.2894 17.9693 10.2781 17.9764 10.2664C18.0203 10.2 18.0666 10.1356 18.1147 10.0729C18.121 10.0648 18.1271 10.0572 18.1329 10.0498L18.1335 10.049L18.1439 10.0358C18.1937 9.97394 18.2451 9.9146 18.2973 9.85863C18.3009 9.85507 18.3044 9.85158 18.3075 9.8482L18.3078 9.84816C18.3124 9.84318 18.3171 9.83843 18.3224 9.83396C18.5495 9.60167 18.8204 9.42411 19.1751 9.32591L19.0171 9.234H19.0089L18.3809 8.86969L17.7357 8.49994L16.0123 9.43831L16.0073 9.43414L16.004 9.43831L14.2801 8.49994L13.6355 8.86969L13.0063 9.234H12.9992L12.84 9.32591C13.1951 9.42411 13.465 9.59958 13.6931 9.83229C13.6971 9.83605 13.7005 9.84 13.7041 9.84398C13.7092 9.84974 13.7143 9.85551 13.7207 9.86071ZM15.4581 7.07631V6.60589L14.6104 6.24909C14.6104 6.24909 14.6179 6.52231 14.9994 6.81896C15.2059 6.98187 15.3339 7.02369 15.3621 7.03289C15.3655 7.034 15.3674 7.03465 15.3679 7.03496L15.4581 7.07631ZM15.8584 5.8856V8.8152L14.4855 8.092L13.9937 5.25389L15.8584 5.8856ZM16.5581 6.60589L17.4058 6.24909C17.4058 6.24909 17.3987 6.52231 17.016 6.81896C16.8092 6.98265 16.6811 7.02409 16.6534 7.03303C16.6502 7.03407 16.6484 7.03467 16.6479 7.03496L16.5581 7.07631V6.60589ZM17.5303 8.092L18.0204 5.25389L16.157 5.8856V8.8152L17.5303 8.092ZM13.7361 15.6843C13.6237 15.6843 13.4031 15.6709 13.2218 15.6049C13.0217 15.5309 12.7234 15.1637 12.7919 14.7593C12.8784 14.7062 13.0789 14.5934 13.2665 14.5934C13.4111 14.5934 13.5097 14.6611 13.579 14.8069C13.6392 14.9335 13.7478 15.0175 13.8238 15.0655C13.8213 15.1838 13.8101 15.3672 13.7783 15.5297C13.7712 15.566 13.762 15.5995 13.7524 15.6325C13.7487 15.6468 13.7444 15.6595 13.7407 15.6704C13.739 15.6754 13.7374 15.6801 13.7361 15.6843ZM16.3427 15.0639L16.3052 15.1006C16.2968 15.1088 16.2912 15.1143 16.2889 15.1166L16.2476 15.1576L14.1059 15.1237C14.1047 15.336 14.07 15.5164 14.0366 15.6485C14.0311 15.6706 14.0253 15.6936 14.0195 15.7166L16.5672 16.1745C16.8321 15.9894 17.5615 15.4567 17.8448 15.2478C17.6389 14.9474 17.6192 14.5902 17.666 14.3387C17.5302 14.2526 17.4274 14.1548 17.3455 14.0512C17.0509 14.3722 16.5152 14.8954 16.3427 15.0639ZM16.2465 12.1882C16.6693 12.146 17.1422 11.9647 17.6361 11.4754H20.8569C20.7164 11.8465 20.6004 12.248 20.6004 12.6474L20.6015 15.2256C20.0627 15.135 19.9987 14.555 19.9967 14.53L19.9871 14.4113L19.8713 14.4013C19.6364 14.3792 19.482 14.2801 19.3507 14.1527C19.0867 13.8882 19.0862 13.4604 19.0867 13.4571C19.0862 13.4594 19.0827 13.466 19.0769 13.4764C19.0289 13.5646 18.8313 13.9277 19.1293 14.3202C19.2689 14.5049 19.4722 14.6186 19.7351 14.6637C19.7969 14.985 20.036 15.4395 20.6015 15.5085V16.7712H19.0118C18.2791 16.3625 18.59 15.6447 18.6038 15.6142L18.666 15.4784L18.5255 15.4249C17.7317 15.1308 17.9502 14.339 17.9607 14.3044L17.9929 14.1895L17.8851 14.1385C17.2295 13.8344 17.3181 13.0163 17.3269 12.982C17.1255 13.1454 17.0528 13.4788 17.1915 13.8055C17.1206 13.8872 17.0263 13.9846 16.9222 14.0922L16.9053 14.1097C16.2264 13.9363 16.2051 13.3125 16.2051 13.2845L16.2034 13.1884L16.1144 13.1538C15.8495 13.0556 15.6674 12.9085 15.578 12.7109C15.4773 12.4924 15.5128 12.2626 15.5404 12.1523C15.6181 12.1698 15.695 12.1815 15.7693 12.1882C15.8458 12.1962 15.9235 12.2008 16.0029 12.2008H16.0075H16.0133C16.0923 12.2008 16.1692 12.1962 16.2465 12.1882ZM13.3573 12.657L13.3139 14.2986L13.501 14.327L13.9573 12.7519L13.7258 12.2672L13.3573 12.657ZM14.2569 18.6349C14.2535 18.6883 14.2924 18.7334 14.3455 18.7347C14.3969 18.7394 14.4411 18.6996 14.4461 18.6474C14.4482 18.5972 14.4102 18.5505 14.3567 18.5483C14.3045 18.5438 14.2615 18.5843 14.2569 18.6349ZM18.4333 20.1936C18.4182 20.1894 18.4022 20.1883 18.3884 20.1883C18.2967 20.1883 18.2564 20.2694 18.2564 20.2694C18.318 20.4345 18.3333 20.5529 18.3475 20.6603C18.3631 20.78 18.3769 20.886 18.4507 21.0276C18.5387 21.1965 18.6847 21.3394 18.774 21.4267L18.7895 21.442C18.7998 21.452 18.8089 21.4612 18.8167 21.4692C18.8167 21.4692 18.7958 21.62 18.7742 21.7332L18.5753 22.7665C18.4487 22.784 18.3158 22.7932 18.1779 22.7994L18.3864 21.8056C18.4167 21.662 18.244 21.5665 18.0136 21.4389C17.7713 21.3049 17.4653 21.1358 17.2646 20.8383C17.0733 21.0536 16.7135 21.1178 16.3517 21.1178C16.0217 21.1178 15.692 21.0647 15.4911 21.0252C15.4405 21.0176 15.3921 21.0114 15.344 21.0114C15.2283 21.0114 15.1226 21.0472 15.0495 21.1696L14.9922 21.2669L13.9122 21.012L13.6431 21.4578C13.6055 21.5298 13.603 21.5903 13.664 21.6576L13.7367 21.7374C13.6866 21.8945 13.4618 22.1327 13.4618 22.1327L13.3014 21.932C13.1744 21.79 13.1953 21.5298 13.3269 21.2892L13.7555 20.5663L14.6705 20.698L14.5289 20.374C14.3953 20.0749 14.4971 19.7189 14.5812 19.4245C14.6176 19.2972 14.6507 19.1812 14.6601 19.0865C14.6496 19.1814 14.5623 19.2032 14.4608 19.2032C14.4115 19.2032 14.3589 19.1978 14.3102 19.1932C14.2681 19.1889 14.2289 19.1852 14.1971 19.1852C14.17 19.1852 14.147 19.188 14.1349 19.1967L13.8867 19.3476L13.6916 19.1752C13.6678 19.142 13.6603 19.0636 13.7175 19.0054L14.17 18.4978L13.6356 17.8732L14.3843 18.2492L14.6133 17.9723C14.6759 18.0332 14.6484 18.1945 14.6484 18.1945C14.8815 18.2003 15.5375 18.5623 15.5721 19.4087C15.5734 19.4345 15.5734 19.4634 15.5734 19.4918L15.5791 19.5005C15.5821 19.5052 15.5863 19.5114 15.5913 19.5194C15.6377 19.5829 15.7656 19.7458 15.9273 19.7612L16.9626 19.8636H16.9663C17.0101 19.8636 17.0704 19.8438 17.1446 19.8196C17.2632 19.7807 17.4173 19.7303 17.5959 19.7303C17.7535 19.7303 17.9289 19.7705 18.1165 19.8887C18.1165 19.8887 18.2109 19.8143 18.3635 19.806C18.3751 19.8052 18.3884 19.8052 18.3989 19.8052C18.7891 19.8052 18.9873 20.1014 19.1887 20.4023C19.2271 20.4594 19.2653 20.5167 19.3051 20.5723C19.492 20.8383 19.7431 21.2323 19.7431 21.2323C19.6502 21.3414 19.5647 21.4027 19.4204 21.4027C19.3811 21.4027 19.336 21.3998 19.2869 21.3894C19.0007 21.3369 18.8551 20.976 18.7293 20.6636C18.6362 20.4327 18.554 20.228 18.4333 20.1936ZM12.8705 21.128C12.8705 21.128 13.229 20.9805 13.2607 20.876L13.2127 20.7563C13.1789 20.6785 13.1839 20.594 13.249 20.5483L13.6355 20.2812L14.281 20.4054C14.281 20.4054 14.1644 20.2592 14.1757 20.0636L13.5591 19.9332L12.9783 20.2867C12.7289 20.4734 12.7109 20.778 12.7932 20.9589L12.8705 21.128ZM17.8217 22.8056C17.6817 22.8056 17.5535 22.8074 17.4381 22.8123L17.7415 21.8676C17.7733 21.78 17.6747 21.6749 17.5767 21.5705C17.5295 21.52 17.4825 21.4698 17.4503 21.4218C17.5998 21.5156 17.9863 21.7212 18.1726 21.8034C18.1538 21.8338 17.8217 22.8056 17.8217 22.8056Z" fill="white"/>
<path id="Vector_3" fill-rule="evenodd" clip-rule="evenodd" d="M18.5603 16.7707H11.4154V12.647C11.4154 12.2476 11.2984 11.8461 11.1602 11.4751H14.3801C14.6864 11.7793 14.9859 11.9689 15.2713 12.073C15.2345 12.2196 15.1852 12.5225 15.3227 12.825C15.4351 13.0686 15.6381 13.2562 15.9327 13.3815C15.964 13.6823 16.1554 14.1352 16.6814 14.3353C16.4503 14.5681 16.2264 14.7874 16.1357 14.8756L13.9983 14.8417C13.9498 14.8175 13.8671 14.7628 13.8303 14.6859C13.8281 14.68 13.8251 14.6757 13.822 14.6711C13.8194 14.6673 13.8168 14.6633 13.8144 14.6583L14.1633 14.7147C14.1708 14.7155 14.1783 14.7155 14.1859 14.7155C14.2531 14.7155 14.312 14.6692 14.3229 14.6002C14.3342 14.5225 14.2828 14.4515 14.2076 14.4402L13.7781 14.3725L14.2544 12.7281L13.8032 11.7793L13.0808 12.543L13.0369 14.2526L12.5514 14.1758C12.4762 14.1611 12.4048 14.2155 12.3914 14.2915C12.3801 14.3667 12.4311 14.4381 12.5071 14.4515L12.711 14.4824C12.6383 14.5238 12.5903 14.5568 12.5844 14.5614L12.5431 14.5902L12.5318 14.6412C12.4136 15.1208 12.6805 15.5762 12.9696 15.7797L12.9588 15.8403C12.9471 15.9138 12.9642 15.9857 13.0085 16.0462C13.0507 16.1077 13.1142 16.1444 13.1873 16.1574C13.2019 16.1603 13.2178 16.1615 13.2324 16.1615C13.357 16.1615 13.4664 16.0751 13.4965 15.9481C13.6043 15.9614 13.7029 15.9635 13.7702 15.9635H13.8266L16.6308 16.4707L16.6789 16.4389C16.9016 16.2831 17.7539 15.6627 18.033 15.4563C18.1094 15.5227 18.1955 15.5821 18.2994 15.6318C18.2084 15.9351 18.203 16.4018 18.5603 16.7707ZM11.4156 17.0489H20.6012L20.603 20.5042C20.603 21.6493 19.9308 22.4491 18.8708 22.7098L19.0483 21.7851L19.0508 21.772C19.0596 21.7205 19.0699 21.6627 19.0772 21.6138C19.1272 21.6347 19.1803 21.6522 19.2372 21.6627C19.3036 21.6753 19.3645 21.6816 19.4205 21.6816C19.6914 21.6816 19.8492 21.5391 19.9541 21.4176L20.0903 21.2587L19.9792 21.0849C19.9692 21.0678 19.7223 20.6785 19.5334 20.4118C19.4963 20.3596 19.4608 20.3069 19.4248 20.2509C19.2092 19.9285 18.9392 19.5249 18.399 19.5249L18.3501 19.5256C18.2616 19.5316 18.1852 19.5487 18.1229 19.5725C17.9533 19.4936 17.7774 19.4518 17.5956 19.4518C17.3721 19.4518 17.1837 19.5131 17.0584 19.5562C17.0473 19.5593 17.0366 19.5627 17.0263 19.566C17.0032 19.5731 16.9824 19.5796 16.9648 19.5825L15.9545 19.4831C15.942 19.4809 15.9002 19.4567 15.8501 19.3969V19.392L16.0686 19.3042C16.0072 18.576 15.3082 18.1282 14.918 17.9765C14.9008 17.9033 14.8658 17.8307 14.8048 17.7713L14.5875 17.5653L14.3966 17.7938L14.3026 17.9109L12.887 17.3293L13.8083 18.4853L13.4452 19.0356C13.312 19.1771 13.4586 19.3185 13.4586 19.3185L13.8342 19.5776L14.2232 19.432C14.2327 19.432 14.2412 19.4336 14.2499 19.4349C14.2537 19.4356 14.2576 19.4362 14.2616 19.4367C14.2508 19.4696 14.2385 19.5569 14.227 19.6387C14.2179 19.7029 14.2093 19.7638 14.2023 19.7922L13.5267 19.6593L12.8173 20.06C12.4525 20.3282 12.4028 20.7711 12.5382 21.0745L12.6167 21.2467L12.7283 21.4898L12.9773 21.3869C12.9806 21.3865 12.984 21.3849 12.9856 21.3831C12.8967 21.6682 12.933 21.9393 13.0918 22.1169L13.243 22.3062L13.4436 22.5593L13.6637 22.3233C13.7281 22.2589 13.9386 22.0233 14.0034 21.8222L14.0506 21.6682L13.9437 21.5496L13.9253 21.5287L14.0469 21.3289L14.9284 21.5365L15.1264 21.5825L15.2317 21.4082L15.2894 21.3133C15.3003 21.2929 15.3028 21.29 15.3437 21.29C15.3746 21.29 15.406 21.2929 15.4398 21.3009C15.7728 21.3636 16.0794 21.3949 16.3514 21.3949C16.6159 21.3949 16.7738 21.3849 16.9614 21.3227C16.9614 21.3227 17.4348 21.8602 17.4511 21.88L17.1616 22.7753L17.1482 22.8289C16.5996 22.8736 16.3322 22.9938 16.0093 23.3165C15.5405 22.8513 15.2075 22.802 13.947 22.802C12.4379 22.802 11.4156 21.9171 11.4156 20.5042V17.0489Z" fill="#FFDD2D"/>
<path id="Vector_4" fill-rule="evenodd" clip-rule="evenodd" d="M14.0383 2.59368L13.7976 2.56819L13.5687 2.54064C13.6739 2.77793 13.7512 3.00313 13.8068 3.18946C14.4164 2.85146 15.2048 2.65886 16.0061 2.65886C16.8116 2.65886 17.6004 2.85146 18.2079 3.18946C18.2631 3.00313 18.3409 2.77793 18.446 2.54064L18.2163 2.56819L17.9752 2.59368L17.8737 2.37435L17.5666 1.72593L17.0067 2.01713L16.7886 2.12826L16.6144 1.95613L16.0061 1.3545L15.399 1.95613L15.2257 2.12826L15.0076 2.01713L14.4452 1.72593L14.1419 2.37435L14.0383 2.59368ZM18.4213 3.73386C17.9455 3.35366 17.0832 2.99644 16.0061 2.99644C14.9307 2.99644 14.0717 3.35366 13.5925 3.73386C13.5925 3.73386 13.4517 2.88239 12.9687 2.13159L13.8361 2.23019L14.2894 1.26593L15.163 1.71548L16.0061 0.879883L16.8521 1.71548L17.7237 1.26593L18.1778 2.23019L19.046 2.13159C18.5626 2.88239 18.4213 3.73386 18.4213 3.73386ZM14.3557 18.5482C14.3035 18.5431 14.2601 18.5842 14.2559 18.6351C14.2521 18.6882 14.2914 18.7333 14.3444 18.7344C14.3959 18.7387 14.4401 18.6993 14.4451 18.6471C14.4472 18.5971 14.4092 18.5502 14.3557 18.5482ZM18.6137 25.7931L18.1942 24.6387C18.6931 24.4871 19.5517 24.1604 19.936 23.9427L19.68 24.7829L20.5493 25.0716C20.0233 25.3356 19.3857 25.5818 18.6137 25.7931ZM16.0083 26.8304C14.9972 26.8304 13.8433 26.5982 13.5032 26.4771L14.0196 25.0795C14.4478 25.2049 15.3398 25.3373 15.9866 25.3331H15.9882H16.0083H16.0258H16.0279C16.6743 25.3373 17.565 25.2049 17.9957 25.0795L18.5113 26.4771C18.1712 26.5982 17.0173 26.8304 16.0083 26.8304ZM11.4651 25.0716L12.3358 24.7829L12.0781 23.9427C12.462 24.1604 13.3218 24.4871 13.8199 24.6387L13.4 25.7931C12.6308 25.5818 11.9903 25.3356 11.4651 25.0716ZM20.5882 24.8151L20.0589 24.6124L20.2051 24.0651L20.366 23.4693C20.366 23.4693 19.4284 23.9782 18.1069 24.36C17.7321 24.4675 17.4485 24.5164 17.4485 24.5164V24.9224C17.4485 24.9224 16.7415 25.0453 16.0279 25.0453H16.0192H16.0083H15.9945H15.9866C15.2717 25.0453 14.5661 24.9224 14.5661 24.9224V24.5164C14.5661 24.5164 14.2819 24.4675 13.9076 24.36C12.5861 23.9782 11.6498 23.4693 11.6498 23.4693L11.8082 24.0651L11.9569 24.6124L11.4263 24.8151L10.8376 25.0353C10.9006 25.0658 10.9658 25.0973 11.0331 25.1302L11.0349 25.1311L11.0381 25.1327C11.6902 25.4498 12.5293 25.8578 13.3031 26.0693L13.1013 26.6209C13.1013 26.6209 14.1867 27.1155 15.9945 27.12V27.1209H15.9999H16.0083H16.015H16.0192V27.12C17.8295 27.1155 18.9137 26.6209 18.9137 26.6209L18.7111 26.0693C19.4911 25.856 20.3386 25.4431 20.9917 25.1247L20.9924 25.1244C21.0553 25.0938 21.1166 25.064 21.1757 25.0353L20.5882 24.8151ZM29.6584 17.3184C29.6584 17.3184 29.2837 17.9711 28.4231 17.9711H28.4126C27.3793 17.9649 26.9633 17.3347 26.9633 17.3347C26.9633 17.3347 27.0226 18.1544 26.6506 19.2604C26.2029 20.5944 26.6549 21.5467 26.6549 21.5467C26.6549 21.5467 26.4131 21.6118 26.1355 21.6118C26.0295 21.6118 25.9186 21.6013 25.814 21.5747C24.9511 21.3691 24.7364 20.5836 24.7364 20.5836C24.7364 20.5836 24.8153 23.2367 21.7224 23.2367H21.6982C21.6982 23.2367 21.9708 22.8655 22.0511 21.7993C22.1982 19.8311 23.5311 19.5604 23.5311 19.5604C23.5311 19.5604 22.8195 19.4709 22.5115 19.1949C22.0291 18.7582 22.0633 18.2531 22.0633 18.2531C23.1517 18.238 23.8649 17.8675 24.408 17.2395C24.9966 16.5589 25.0928 15.8257 25.0928 15.8257C25.0928 15.8257 24.5077 16.3558 23.3764 16.3558C23.2771 16.3558 23.1709 16.3513 23.0615 16.3404C22.5262 16.2973 22.156 15.9569 22.156 15.9569C23.3337 15.2019 24.1602 13.8837 23.4273 11.8992C22.8404 10.3091 21.43 9.12084 20.0093 8.22591C19.5368 7.93095 19.2737 7.60255 19.2737 7.32055C19.2737 6.91319 19.6286 6.74748 19.9924 6.57753C20.2224 6.47015 20.456 6.36108 20.606 6.18831C21.0535 5.66897 20.7726 4.82795 20.3855 4.32117C20.3855 4.32117 20.5157 4.29442 20.7217 4.29442C21.1308 4.29442 21.8382 4.39679 22.4193 5.00008C23.1913 5.79851 22.8713 6.66877 22.8713 6.66877L23.0782 6.70888C23.196 6.73397 23.3135 6.73971 23.4346 6.74562L23.4524 6.74648C23.4662 6.74648 23.4802 6.7469 23.4942 6.74733C23.5082 6.74773 23.5222 6.74815 23.536 6.74815C24.6573 6.74815 25.1588 5.57539 25.1588 5.57539C25.1588 5.57539 26.3511 7.04186 24.5955 8.19166C24.2935 8.38844 24.1602 8.57102 24.1953 8.76446L24.2224 8.89231L24.3473 8.91444C25.5644 9.24448 26.2069 10.0621 26.948 11.0056C26.9817 11.0487 27.016 11.0919 27.0502 11.1355C28.2446 12.6533 29.9333 12.7022 30.142 12.7022H30.1649C30.1649 12.7022 29.7793 13.9193 28.6433 13.9193C28.624 13.9193 28.6077 13.9193 28.5893 13.918C28.0675 13.8992 27.7997 13.6999 27.7997 13.6999C27.7997 13.6999 27.5962 16.462 29.6584 17.3184ZM28.6433 14.2919C30.0362 14.2919 30.5024 12.8748 30.5213 12.8142L30.6771 12.3145L30.1549 12.3308H30.1531C29.9689 12.3308 28.4313 12.2903 27.3422 10.9053L27.2395 10.777L27.234 10.7701C26.5242 9.86728 25.8493 9.00913 24.6449 8.61739C24.68 8.58606 24.7297 8.54719 24.7982 8.50248C25.4391 8.08177 25.8117 7.56955 25.9053 6.97544C26.0424 6.08177 25.4717 5.36857 25.4466 5.33975L25.0588 4.86055L24.8166 5.42917L24.8162 5.42988C24.7955 5.47557 24.388 6.37591 23.536 6.37591H23.4717L23.4506 6.3747L23.4269 6.37342C23.3844 6.37113 23.3426 6.36886 23.3022 6.36546C23.3322 5.95977 23.2582 5.33097 22.6875 4.74064C22.002 4.03079 21.1613 3.92384 20.7217 3.92384C20.5146 3.92384 20.3689 3.94659 20.3253 3.95339C20.3195 3.9543 20.3155 3.95493 20.3135 3.95517L19.7277 4.07133L20.0895 4.54762C20.3724 4.91486 20.6297 5.59253 20.3249 5.94597C20.2329 6.05246 20.0491 6.13997 19.8675 6.22642L19.8351 6.24177C19.4413 6.42311 18.9017 6.67671 18.9017 7.32055C18.9017 7.73666 19.2253 8.17284 19.8113 8.54344C21.5457 9.63388 22.616 10.7724 23.0782 12.0287C23.7933 13.9615 22.86 15.064 21.9546 15.6448L21.5477 15.9059L21.9033 16.2327L21.9035 16.2329C21.9535 16.2767 22.3875 16.6584 23.0293 16.7135C23.1513 16.7211 23.2673 16.7282 23.3764 16.7282C23.788 16.7282 24.1393 16.6633 24.4246 16.576C24.3462 16.7136 24.2493 16.8542 24.1284 16.9951C23.6104 17.5947 22.9733 17.8675 22.0575 17.8824L21.7169 17.888L21.6911 18.2293C21.6877 18.2982 21.6617 18.9311 22.2613 19.4698C22.3528 19.5533 22.4635 19.6218 22.5802 19.6773C22.1731 20.0433 21.7604 20.6809 21.6806 21.7722C21.6129 22.6838 21.3962 23.0207 21.3931 23.0244L21.0166 23.5989L21.6968 23.608C22.8204 23.608 23.6802 23.2984 24.2764 22.6838C24.6291 22.3204 24.8304 21.9095 24.9495 21.5467C25.1446 21.7133 25.3969 21.8595 25.7266 21.9373C25.8515 21.9664 25.9877 21.982 26.1355 21.982C26.4442 21.982 26.7046 21.9182 26.7453 21.9082L26.7482 21.9075L27.1822 21.7922L26.9904 21.3873L26.9895 21.3855C26.9662 21.3309 26.6202 20.5244 27.0037 19.3816C27.1717 18.8798 27.2573 18.4307 27.2991 18.0809C27.5729 18.2231 27.9388 18.3409 28.4122 18.3424C29.4708 18.3424 29.9464 17.5631 29.9802 17.5075L29.9815 17.5056L30.1933 17.1371L29.8009 16.9755C28.52 16.4435 28.2366 15.0156 28.18 14.2431C28.2955 14.2652 28.428 14.2857 28.5773 14.2898L28.6433 14.2919ZM27.926 8.61326C27.6397 8.31744 27.3373 8.22928 27.0777 8.22928C26.6746 8.22928 26.3726 8.44237 26.3726 8.44237C26.958 8.75391 27.2917 9.16715 27.5722 9.51426C27.8113 9.81002 28.0113 10.0578 28.2953 10.1537C28.4002 10.19 28.5057 10.2059 28.6115 10.2059C29.0669 10.2059 29.5064 9.91135 29.6586 9.57544C29.6586 9.57544 28.8237 9.52446 27.926 8.61326ZM27.2829 9.74799C27.0177 9.41919 26.7146 9.04817 26.1955 8.77159L25.662 8.48457L26.1573 8.1357L26.1637 8.13162C26.2284 8.09028 26.5926 7.85746 27.0777 7.85746C27.4911 7.85746 27.8751 8.02751 28.192 8.35046C28.9633 9.13802 29.6564 9.2015 29.6815 9.20235L30.22 9.23411L29.9973 9.72793C29.7764 10.2205 29.1926 10.5761 28.6115 10.5761C28.462 10.5761 28.3162 10.5535 28.1791 10.5063C27.7962 10.3796 27.5502 10.0769 27.2926 9.75995L27.2829 9.74799ZM26.4393 13.6917V13.7105C26.1269 11.1878 24.2951 9.3658 22.2562 8.25862C22.0682 8.15753 21.8937 8.07228 21.7253 7.99039C22.3453 8.08648 23.3451 8.09777 24.1164 7.42888C24.1164 7.42888 22.936 8.29706 20.5182 7.50826C20.7122 7.63417 20.9595 7.77513 21.2415 7.93602C21.9322 8.32986 22.8322 8.84319 23.6755 9.54795C26.6435 12.1563 24.5204 14.7002 24.5204 14.7002C25.5866 13.5868 25.6308 12.3948 25.3171 11.4205C25.8791 12.356 26.2384 13.4903 26.182 14.8895C26.1 16.8944 24.9986 18.628 23.8389 20.0209C23.2815 20.6973 23.1575 21.528 23.1575 21.528C23.1575 21.528 23.3826 20.7947 24.0273 20.0407C25.2695 18.5858 26.3324 17.0753 26.4711 14.8979C26.5997 15.2931 27.1291 16.3911 27.9684 16.8047C27.9684 16.8047 26.9135 16.1692 26.4393 13.6917ZM7.27758 20.5836C7.27758 20.5836 7.19863 23.2367 10.292 23.2367H10.3142C10.3142 23.2367 10.0434 22.8655 9.96403 21.7993C9.81698 19.8307 8.48336 19.5604 8.48336 19.5604C8.48336 19.5604 9.19529 19.4709 9.50405 19.1949C9.98534 18.7582 9.9511 18.2531 9.9511 18.2531C8.86272 18.238 8.15038 17.8675 7.60347 17.2395C7.01856 16.5589 6.92163 15.8257 6.92163 15.8257C6.92163 15.8257 7.50654 16.3558 8.63669 16.3558C8.73821 16.3558 8.8435 16.3513 8.95296 16.3404C9.48943 16.2973 9.86001 15.9569 9.86001 15.9569C8.68056 15.2019 7.85456 13.8842 8.58656 11.8992C9.17314 10.3091 10.5832 9.12084 12.0046 8.22591C12.4767 7.93095 12.7395 7.60255 12.7395 7.32055C12.7395 6.91324 12.3851 6.74751 12.0216 6.57748C11.7918 6.47002 11.5584 6.36084 11.4084 6.18788C10.9613 5.66897 11.2413 4.82753 11.6277 4.32117C11.6277 4.32117 11.4995 4.29442 11.2926 4.29442C10.884 4.29442 10.1771 4.39679 9.59554 5.00008C8.82136 5.79851 9.14307 6.66877 9.14307 6.66877L8.93625 6.70888C8.82123 6.73337 8.70512 6.73942 8.58794 6.74553L8.5615 6.7469C8.54692 6.7469 8.53321 6.74722 8.51965 6.74753C8.50638 6.74782 8.49323 6.74815 8.47961 6.74815C7.35489 6.74815 6.85603 5.57582 6.85603 5.57582C6.85603 5.57582 5.66405 7.04186 7.41965 8.19166C7.72172 8.38802 7.85456 8.57059 7.81905 8.76446L7.79232 8.89231L7.66447 8.91444C6.44796 9.24526 5.80485 10.0637 5.06216 11.0088L5.06185 11.0092C5.02898 11.0511 4.9959 11.0931 4.96256 11.1355C3.76934 12.6533 2.08143 12.7022 1.8717 12.7022H1.8483C1.8483 12.7022 2.23392 13.9193 3.37076 13.9193C3.38872 13.9193 3.40585 13.9193 3.42465 13.918C3.94732 13.8992 4.21512 13.6999 4.21512 13.6999C4.21512 13.6999 4.41692 16.462 2.35634 17.3184C2.35634 17.3184 2.73152 17.9707 3.59176 17.9707H3.60181C4.63585 17.9649 5.05156 17.3347 5.05156 17.3347C5.05156 17.3347 4.99141 18.1544 5.36198 19.2604C5.81027 20.5944 5.36074 21.5467 5.36074 21.5467C5.36074 21.5467 5.60054 21.6118 5.87881 21.6118C5.98618 21.6118 6.09647 21.6013 6.19967 21.5742C7.06201 21.3691 7.27758 20.5836 7.27758 20.5836ZM10.6198 23.0222L10.6208 23.024L10.9973 23.5989L10.3171 23.608C9.19363 23.608 8.33463 23.298 7.73676 22.6838C7.38539 22.3204 7.18318 21.9095 7.06494 21.5467C6.87107 21.7133 6.61623 21.8595 6.28658 21.9373C6.16292 21.9664 6.0263 21.982 5.87881 21.982C5.56376 21.982 5.29681 21.9151 5.26665 21.9075H5.26632L4.83138 21.7922L5.02398 21.3873L5.0253 21.3842C5.05241 21.3202 5.39216 20.5169 5.01021 19.3816C4.84225 18.8793 4.75661 18.4307 4.71483 18.0809C4.44116 18.2231 4.07558 18.3409 3.60514 18.342C2.5369 18.342 2.0605 17.552 2.03312 17.5067L2.03254 17.5056L1.82114 17.1367L2.21221 16.9755C3.49318 16.4435 3.77727 15.0156 3.83536 14.2431C3.71754 14.2652 3.5851 14.2857 3.43803 14.2898L3.37076 14.2919C1.97698 14.2919 1.51196 12.8748 1.49358 12.8142L1.33398 12.3145L1.85874 12.3308C2.04298 12.3308 3.58301 12.2903 4.67136 10.9053L4.77414 10.777L4.78147 10.7677C5.4907 9.86573 6.16454 9.00877 7.36952 8.61739C7.33441 8.58606 7.28636 8.54719 7.21661 8.50248C6.5757 8.08177 6.20261 7.56955 6.10985 6.97544C5.97376 6.09866 6.52134 5.39562 6.56298 5.34213L6.56483 5.33975L6.95672 4.86055L7.19821 5.42917C7.21367 5.46511 7.61978 6.37591 8.47961 6.37591H8.5427C8.55703 6.37506 8.57118 6.37431 8.58525 6.37353L8.58559 6.37351C8.62836 6.37117 8.67005 6.36891 8.71147 6.36546C8.68223 5.95935 8.75703 5.33139 9.32816 4.74022C10.0138 4.03079 10.8527 3.92384 11.2927 3.92384C11.5013 3.92384 11.6461 3.94677 11.6884 3.95346L11.6924 3.9541C11.6958 3.95464 11.6981 3.95499 11.6996 3.95517L12.2883 4.07133L11.9248 4.54762C11.6411 4.91444 11.3837 5.59253 11.6891 5.94597C11.7801 6.05133 11.961 6.13773 12.1407 6.22357L12.1788 6.24177C12.5732 6.42311 13.1109 6.67671 13.1109 7.32055C13.1109 7.73666 12.79 8.17284 12.2039 8.54344C10.4671 9.63388 9.39834 10.7724 8.93625 12.0287C8.22225 13.9615 9.15185 15.0636 10.0606 15.6448L10.4671 15.9059L10.1107 16.2327C10.0627 16.2753 9.6273 16.6584 8.9839 16.7135C8.86272 16.7211 8.74741 16.7282 8.63669 16.7282C8.22392 16.7282 7.87463 16.6633 7.5897 16.576C7.66907 16.7136 7.76601 16.8538 7.88592 16.9951C8.40356 17.5942 9.04238 17.8675 9.95527 17.8824L10.2983 17.888L10.3212 18.2293C10.3254 18.2982 10.3513 18.9311 9.75223 19.4698C9.6603 19.5533 9.55125 19.6218 9.43303 19.6773C9.84079 20.0433 10.2536 20.6809 10.3346 21.7722C10.4014 22.6495 10.6036 22.9944 10.6198 23.0222ZM4.08747 8.61279C4.3745 8.31742 4.67656 8.22884 4.93727 8.22884C5.33836 8.22884 5.6421 8.44191 5.6421 8.44191C5.05834 8.75326 4.72423 9.16566 4.44336 9.51237C4.20298 9.80908 4.00158 10.0577 3.71605 10.1536C3.6141 10.19 3.50798 10.2059 3.40227 10.2059C2.9473 10.2059 2.50652 9.91131 2.35612 9.57539C2.35612 9.57539 3.19087 9.52444 4.08747 8.61279ZM3.40227 10.576C3.55185 10.576 3.69723 10.5539 3.83512 10.5067C4.21938 10.3794 4.46554 10.076 4.7231 9.75857L4.7317 9.74795L4.73918 9.73875C5.00427 9.41264 5.30267 9.04555 5.81798 8.77155L6.35276 8.48453L5.85601 8.13566L5.84932 8.13142C5.78407 8.08964 5.42143 7.85742 4.93725 7.85742C4.52323 7.85742 4.13885 8.02704 3.82174 8.35042C3.05047 9.13837 2.35903 9.20188 2.33396 9.20231L1.79583 9.23406L2.01685 9.7279C2.2387 10.2205 2.82236 10.576 3.40227 10.576ZM6.69692 11.4206C6.13454 12.3561 5.77525 13.49 5.83332 14.8896C5.91396 16.8947 7.01527 18.6284 8.17256 20.0211C8.73243 20.6967 8.85818 21.528 8.85818 21.528C8.85818 21.528 8.6309 20.7947 7.98665 20.0402C6.74454 18.5858 5.68207 17.0747 5.5417 14.898C5.41301 15.2932 4.8845 16.3911 4.04638 16.8049C4.04638 16.8049 5.1005 16.1693 5.57387 13.6913V13.711C5.88763 11.1879 7.71885 9.36588 9.75812 8.25871C9.92576 8.16815 10.0847 8.08999 10.2361 8.01553L10.2887 7.98964C9.66912 8.08657 8.66934 8.09786 7.89765 7.42895C7.89765 7.42895 9.07836 8.29715 11.4953 7.50835C11.3016 7.63408 11.0549 7.77484 10.7734 7.93548C10.083 8.32939 9.18312 8.84291 8.3397 9.54804C5.37038 12.1564 7.4945 14.7007 7.4945 14.7007C6.42576 13.5869 6.38314 12.3945 6.69692 11.4206ZM15.3084 9.78542V10.2855C15.481 10.0758 15.814 10.1188 15.814 10.1188V10.8395C15.814 10.8395 15.8027 11.1947 15.6765 11.348H16.0383H16.3981C16.274 11.1947 16.261 10.8395 16.261 10.8395V10.1188C16.261 10.1188 16.5953 10.0758 16.7661 10.2855V9.78542H16.0383H15.3084ZM15.3614 7.03328C15.3338 7.0243 15.2056 6.98248 14.9984 6.81839C14.6165 6.52217 14.609 6.24935 14.609 6.24935L15.4571 6.60573V7.07659L15.3668 7.03522C15.3666 7.03506 15.3659 7.03479 15.3648 7.03442C15.3639 7.03413 15.3628 7.03375 15.3614 7.03328ZM17.0147 6.81839C17.3979 6.52217 17.4054 6.24935 17.4054 6.24935L16.5568 6.60573V7.07659L16.6467 7.03522C16.6471 7.03493 16.649 7.03433 16.6521 7.0333C16.6797 7.02433 16.8079 6.98251 17.0147 6.81839ZM13.9635 4.75702L16.0061 5.56377L18.0492 4.75702C17.8766 4.34548 17.0757 3.99619 16.0061 3.99495C14.9382 3.99619 14.1377 4.34548 13.9635 4.75702ZM16.1561 8.81508L17.5294 8.09231L18.0191 5.25335L16.1561 5.8859V8.81508ZM19.0075 9.23373L18.3797 8.86939L17.7345 8.49966L16.0111 9.43804L16.0061 9.43426L16.0028 9.43804L14.2794 8.49966L13.6343 8.86939L13.0051 9.23373H12.9984L12.8392 9.32606C13.1939 9.42382 13.4634 9.59931 13.6923 9.83244C13.696 9.83591 13.6993 9.83973 13.7027 9.84357C13.7078 9.84944 13.7129 9.85537 13.7195 9.86042C13.7701 9.91473 13.8202 9.97406 13.8682 10.0334C13.8703 10.036 13.8724 10.0385 13.8745 10.041C13.8836 10.052 13.8925 10.0627 13.9017 10.076C13.9459 10.1345 13.9907 10.1976 14.0341 10.2615C14.0395 10.2686 14.0448 10.2766 14.0503 10.2849C14.0545 10.2913 14.0588 10.2978 14.0633 10.3041C14.1152 10.3818 14.1641 10.4633 14.2125 10.5469C14.6587 11.3169 15.3723 11.7773 16.0061 11.7781C16.6407 11.7773 17.3539 11.3169 17.801 10.5469C17.8503 10.4612 17.9004 10.3777 17.9522 10.3004C17.9538 10.2981 17.9554 10.2958 17.957 10.2935C17.9632 10.2847 17.9696 10.2755 17.9752 10.2665C18.0191 10.2001 18.0655 10.1353 18.1135 10.0731C18.1235 10.0597 18.134 10.0472 18.1427 10.0355C18.1924 9.97406 18.2437 9.91433 18.296 9.85833C18.3002 9.85453 18.3042 9.85062 18.3077 9.84684C18.3124 9.84233 18.3166 9.83797 18.3211 9.83411C18.5488 9.60139 18.8191 9.42382 19.174 9.32606L19.016 9.23373H19.0075ZM20.5991 12.6472C20.5991 12.2477 20.7151 11.8462 20.8555 11.4752H17.6347C17.1417 11.9645 16.6683 12.1462 16.2451 12.188C16.1686 12.1959 16.0909 12.2009 16.0124 12.2009H16.0061H16.0015C15.923 12.2009 15.8444 12.1959 15.7684 12.188C15.6944 12.1817 15.6167 12.17 15.539 12.1521C15.5114 12.2624 15.4759 12.4917 15.5766 12.7106C15.6669 12.9083 15.8482 13.0558 16.1135 13.1535L16.2029 13.1882L16.2041 13.2843C16.2041 13.3131 16.225 13.9365 16.904 14.1094L16.9081 14.1052C17.0172 13.9928 17.1163 13.8907 17.1902 13.8057C17.0515 13.4786 17.1241 13.1451 17.3259 12.9818C17.3172 13.0165 17.2286 13.8341 17.8837 14.1378L17.9919 14.1897L17.9597 14.305C17.9493 14.3392 17.7308 15.1305 18.5242 15.4251L18.6646 15.4777L18.6026 15.6143C18.5886 15.6453 18.2777 16.3631 19.0104 16.7704H20.6002V15.5091C20.0353 15.4397 19.7955 14.9856 19.7337 14.6634C19.4713 14.6187 19.268 14.5047 19.128 14.32C18.8302 13.9271 19.0277 13.5643 19.0755 13.4762C19.0813 13.4657 19.0849 13.4592 19.0853 13.4568C19.0849 13.4606 19.0853 13.8888 19.3497 14.1529C19.4802 14.2799 19.636 14.3789 19.87 14.4011L19.9857 14.4119L19.9962 14.5298C19.9982 14.5552 20.0613 15.1347 20.6002 15.2254L20.5991 12.6472ZM19.0473 21.7853L18.8697 22.7098C19.9297 22.4491 20.602 21.6495 20.602 20.5042L20.6002 17.0491H11.4141V20.5042C11.4141 21.9178 12.4369 22.8022 13.946 22.8022C15.2069 22.8022 15.539 22.8515 16.0082 23.3164C16.3312 22.994 16.5981 22.8735 17.1471 22.8289L17.1601 22.7751L17.45 21.8809C17.4337 21.86 16.9604 21.3227 16.9604 21.3227C16.7724 21.3849 16.6145 21.3953 16.3504 21.3953C16.0784 21.3953 15.7713 21.3638 15.4388 21.3011C15.4053 21.2936 15.374 21.2907 15.3427 21.2907C15.3017 21.2907 15.2996 21.2936 15.2883 21.3136L15.2311 21.4084L15.1258 21.5827L14.927 21.5367L14.0458 21.3291L13.9251 21.5287L13.943 21.55L14.0496 21.6682L14.0019 21.822C13.9376 22.0233 13.727 22.2591 13.6627 22.3233L13.4425 22.5602L13.242 22.3062L13.0911 22.1169C12.9328 21.9393 12.896 21.6682 12.9854 21.3829C12.9834 21.3849 12.9796 21.3862 12.9763 21.3871L12.7277 21.4898L12.6161 21.2471L12.5371 21.0749C12.4018 20.7713 12.4515 20.3284 12.8162 20.0602L13.5257 19.66L14.2012 19.7927C14.2085 19.7635 14.2173 19.7011 14.2265 19.6358C14.2379 19.5549 14.2499 19.4695 14.2606 19.4369C14.2563 19.4362 14.252 19.4356 14.2478 19.4347C14.2393 19.4333 14.2309 19.4318 14.2217 19.4318L13.8332 19.5771L13.4576 19.3189C13.4576 19.3189 13.3113 19.1769 13.4438 19.0358L13.8068 18.4855L12.8864 17.3293L14.3015 17.9109L14.3959 17.794L14.5869 17.5655L14.8037 17.7715C14.8651 17.8309 14.9002 17.9035 14.9173 17.9767C15.3067 18.1278 16.0061 18.5762 16.068 19.3047L15.849 19.3924V19.3971C15.8996 19.4569 15.9405 19.4811 15.9535 19.4836L16.9641 19.5831C16.9809 19.5798 17.0004 19.5738 17.0221 19.5671C17.0334 19.5635 17.0453 19.5598 17.0577 19.5562C17.1827 19.514 17.3711 19.4518 17.595 19.4518C17.7768 19.4518 17.9522 19.4931 18.1219 19.5727C18.1841 19.5491 18.2606 19.5315 18.3495 19.5262L18.398 19.5249C18.9384 19.5249 19.2075 19.9276 19.4228 20.2498L19.4237 20.2511C19.4597 20.3076 19.4951 20.3593 19.5324 20.412C19.7215 20.6784 19.9677 21.0676 19.9782 21.0851L20.0893 21.2589L19.9531 21.4175C19.8482 21.5391 19.69 21.6815 19.4191 21.6815C19.3635 21.6815 19.3031 21.6753 19.2362 21.6629C19.1789 21.652 19.1262 21.6349 19.0762 21.614C19.0689 21.6629 19.0586 21.7204 19.0495 21.772L19.0473 21.7853ZM13.2595 20.8758L13.2119 20.7562C13.1776 20.6784 13.1822 20.594 13.2478 20.5482L13.6343 20.2815L14.2798 20.4053C14.2798 20.4053 14.1632 20.2591 14.1745 20.0636L13.5582 19.9331L12.9771 20.2867C12.7277 20.4733 12.7097 20.778 12.7924 20.9589L12.8693 21.128C12.8693 21.128 13.2282 20.9807 13.2595 20.8758ZM18.5744 22.7667L18.7729 21.7331C18.7949 21.6202 18.8157 21.4689 18.8157 21.4689C18.8049 21.4578 18.7915 21.4449 18.7764 21.4302C18.6873 21.3433 18.5389 21.1984 18.4495 21.0282C18.3755 20.8862 18.3617 20.78 18.3462 20.66C18.3322 20.5524 18.3166 20.434 18.2555 20.2691C18.2555 20.2691 18.2953 20.188 18.3871 20.188C18.4013 20.188 18.4173 20.1898 18.4322 20.1938C18.5529 20.228 18.6351 20.4324 18.728 20.6631C18.854 20.9756 18.9993 21.3367 19.2857 21.3896C19.3351 21.3991 19.3797 21.4024 19.4191 21.4024C19.5637 21.4024 19.6493 21.3416 19.7417 21.232C19.7417 21.232 19.4911 20.8384 19.3042 20.5729C19.2646 20.5175 19.2266 20.4604 19.1884 20.4036C18.9869 20.1018 18.7882 19.8049 18.398 19.8049C18.3871 19.8049 18.3737 19.8049 18.3624 19.8064C18.2096 19.8135 18.1156 19.8884 18.1156 19.8884C17.928 19.7707 17.7525 19.7304 17.595 19.7304C17.4163 19.7304 17.2619 19.7811 17.1432 19.8198C17.0691 19.844 17.0089 19.8638 16.9654 19.8638H16.9612L15.9267 19.7611C15.7646 19.746 15.6364 19.5831 15.5904 19.5187C15.5791 19.5015 15.5729 19.4911 15.5729 19.4911C15.5729 19.4636 15.5729 19.4342 15.5712 19.4089C15.5361 18.5624 14.8806 18.2002 14.647 18.1942C14.647 18.1942 14.6746 18.0338 14.6115 17.972L14.383 18.2489L13.6343 17.8729L14.1691 18.4975L13.7166 19.0056C13.6593 19.0638 13.6665 19.1413 13.6903 19.1744L13.8858 19.3473L14.134 19.1973C14.1461 19.1878 14.1691 19.1853 14.1958 19.1853C14.2275 19.1853 14.2667 19.1891 14.3087 19.1931C14.3575 19.1978 14.4103 19.2029 14.4599 19.2029C14.561 19.2029 14.6483 19.1815 14.6587 19.0867C14.6494 19.1813 14.6163 19.2971 14.58 19.4244C14.496 19.7189 14.3944 20.0747 14.5279 20.374L14.67 20.6982L13.7546 20.5658L13.3264 21.2893C13.1939 21.53 13.1735 21.7902 13.3 21.9322L13.4605 22.1329C13.4605 22.1329 13.6853 21.8947 13.7354 21.7375L13.6627 21.6578C13.6013 21.5902 13.6046 21.53 13.6422 21.4578L13.9104 21.0127L14.9909 21.2667L15.0485 21.1698C15.1216 21.0478 15.2269 21.0115 15.3427 21.0115C15.3907 21.0115 15.4396 21.0169 15.4901 21.0253C15.6907 21.0649 16.0203 21.1175 16.3504 21.1175C16.7122 21.1175 17.0723 21.0529 17.2637 20.8384C17.464 21.1356 17.7698 21.3047 18.0121 21.4387C18.2426 21.5662 18.4157 21.6618 18.3851 21.8058L18.1766 22.7989C18.3144 22.7933 18.4477 22.7842 18.5744 22.7667ZM17.4371 22.8122C17.552 22.8075 17.6811 22.806 17.8202 22.806C17.8202 22.806 18.1528 21.8338 18.1716 21.8029C17.9853 21.7209 17.5988 21.5158 17.4492 21.4218C17.4814 21.47 17.5288 21.5207 17.5763 21.5711C17.674 21.6753 17.7723 21.7802 17.74 21.868L17.4371 22.8122ZM13.356 12.6572L13.313 14.2983L13.4997 14.3271L13.956 12.7516L13.7245 12.2674L13.356 12.6572ZM13.8223 15.0654C13.7467 15.0173 13.6381 14.9333 13.5775 14.8068C13.5089 14.6609 13.4099 14.5933 13.2658 14.5933C13.0778 14.5933 12.8772 14.7061 12.7907 14.7591C12.7222 15.164 13.0205 15.5308 13.2207 15.6047C13.402 15.6707 13.6222 15.6846 13.735 15.6846C13.7365 15.6796 13.7383 15.6742 13.7403 15.6683C13.7438 15.6578 13.7478 15.6459 13.7513 15.6327C13.7609 15.5997 13.7701 15.5659 13.7776 15.53C13.8089 15.367 13.8202 15.1836 13.8223 15.0654ZM16.566 16.1742C16.8309 15.9891 17.5607 15.4564 17.8436 15.2479C17.6376 14.9471 17.618 14.5899 17.6644 14.3392C17.5294 14.2528 17.4266 14.1545 17.3443 14.051C17.0316 14.3919 16.4476 14.9603 16.3141 15.0902C16.2999 15.104 16.2909 15.1128 16.2877 15.1159L16.2464 15.1577L14.1051 15.1234C14.1035 15.3361 14.0692 15.5162 14.0358 15.6486C14.0325 15.6618 14.029 15.6753 14.0254 15.6889C14.023 15.6981 14.0206 15.7074 14.0182 15.7167L16.566 16.1742ZM15.27 12.0727C14.9854 11.9691 14.6855 11.7794 14.3788 11.4752H11.1588C11.2971 11.8462 11.4141 12.2477 11.4141 12.6472V16.7704H18.5593C18.2021 16.402 18.2079 15.9352 18.2977 15.6327C18.1941 15.5826 18.1085 15.5229 18.032 15.4568C17.7525 15.6628 16.9011 16.2829 16.6775 16.4391L16.6299 16.4704L13.826 15.9645H13.7688C13.7015 15.9645 13.6034 15.9616 13.4956 15.9486C13.4655 16.0752 13.356 16.1612 13.2311 16.1612C13.2169 16.1612 13.201 16.1604 13.1864 16.1575C13.1133 16.145 13.0498 16.1078 13.0072 16.0463C12.9633 15.9862 12.9462 15.9143 12.9583 15.8408L12.9683 15.7798C12.6796 15.5763 12.4126 15.1214 12.5309 14.6413L12.5421 14.5903L12.5835 14.5615C12.5889 14.5569 12.6374 14.5239 12.7097 14.483L12.5062 14.4516C12.4298 14.4382 12.3784 14.3668 12.3905 14.292C12.4034 14.216 12.4753 14.1608 12.5505 14.1755L13.036 14.2527L13.0803 12.5435L13.8027 11.7794L14.2535 12.7282L13.7776 14.3722L14.2063 14.4399C14.2819 14.452 14.3333 14.5226 14.322 14.6003C14.3107 14.6693 14.2522 14.7157 14.1845 14.7157C14.177 14.7157 14.1699 14.7157 14.1624 14.7148L13.8139 14.6588C13.8161 14.6637 13.8187 14.6676 13.8213 14.6715C13.8242 14.6759 13.8272 14.6802 13.8294 14.686C13.8662 14.7633 13.9489 14.8176 13.9973 14.8418L16.1344 14.8757L16.1431 14.8672C16.2388 14.7737 16.4569 14.5606 16.6805 14.3351C16.154 14.1357 15.9631 13.6829 15.9309 13.3816C15.6372 13.2563 15.4342 13.0687 15.3213 12.8251C15.1843 12.5231 15.2328 12.2202 15.27 12.0727ZM15.8574 5.8859L13.9927 5.25335L14.4841 8.09231L15.8574 8.81508V5.8859ZM16.0107 3.54206C17.3385 3.54206 18.5417 4.18504 18.5417 4.8999L18.5157 5.07579L17.9852 8.11988L18.5157 8.42904L19.8962 9.23373H19.8913C19.8913 9.23373 20.2017 9.39291 20.3433 9.49108C20.8711 9.85499 20.9813 10.3873 20.6762 10.607C20.6002 10.1733 20.258 9.72046 19.6166 9.72046C19.1542 9.72046 18.8024 9.95777 18.5157 10.3167C18.4444 10.4069 18.3751 10.5034 18.3095 10.607C18.2293 10.7382 18.1499 10.8531 18.0705 10.9634H21.6213C21.3593 11.4882 21.112 12.0434 21.112 12.6472V20.5042C21.112 22.4064 19.6515 23.3135 18.0684 23.3135C17.9762 23.3135 17.89 23.3133 17.8092 23.3129C16.8169 23.3093 16.629 23.3087 16.0082 23.9302C15.3847 23.3087 15.1966 23.3093 14.205 23.3129C14.1242 23.3133 14.0381 23.3135 13.946 23.3135C12.3642 23.3135 10.9015 22.4064 10.9015 20.5042V12.6472C10.9015 12.0434 10.6537 11.4882 10.3926 10.9634H13.943C13.8632 10.8531 13.783 10.7382 13.7032 10.607C13.6389 10.5034 13.5691 10.4069 13.4956 10.3167C13.2119 9.95902 12.8593 9.72046 12.3972 9.72046C11.755 9.72046 11.4124 10.1733 11.3372 10.607C11.0326 10.3873 11.1442 9.85499 11.6689 9.49108C11.8127 9.39291 12.1227 9.23373 12.1227 9.23373H12.1177L13.4956 8.42904L14.0287 8.11988L13.4981 5.07579L13.4718 4.8999C13.4718 4.18504 14.675 3.54206 16.0028 3.54206H16.0061H16.0095H16.0107Z" fill="#231F20"/>
</g>
</svg>
